{
  "name": "BTC/USD",
  "asks": [
    {
      "numberOfOrders": 1,
      "price": 6074.9,
      "quantity": 3.93318116
    }, {
      "numberOfOrders": 1,
      "price": 6080,
      "quantity": 0.01
    }, {
      "numberOfOrders": 1,
      "price": 6081.04,
      "quantity": 34.6
    }, {
      "numberOfOrders": 1,
      "price": 6084.12,
      "quantity": 0.04
    }, {
      "numberOfOrders": 1,
      "price": 6085.78,
      "quantity": 3.13
    }, {
      "numberOfOrders": 1,
      "price": 6085.9,
      "quantity": 1.999
    }, {
      "numberOfOrders": 1,
      "price": 6087,
      "quantity": 0.07
    }, {
      "numberOfOrders": 1,
      "price": 6089.3,
      "quantity": 0.5
    }, {
      "numberOfOrders": 1,
      "price": 6090,
      "quantity": 0.01
    }, {
      "numberOfOrders": 1,
      "price": 6092.57,
      "quantity": 0.84
    }, {
      "numberOfOrders": 1,
      "price": 6095,
      "quantity": 0.32
    }, {
      "numberOfOrders": 1,
      "price": 6095.21,
      "quantity": 4.83
    }, {
      "numberOfOrders": 1,
      "price": 6096.08,
      "quantity": 0.04
    }, {
      "numberOfOrders": 1,
      "price": 6097.07,
      "quantity": 36
    }, {
      "numberOfOrders": 1,
      "price": 6098.3,
      "quantity": 12
    }, {
      "numberOfOrders": 1,
      "price": 6099.24,
      "quantity": 0.07
    }, {
      "numberOfOrders": 2,
      "price": 6100,
      "quantity": 2.51
    }, {
      "numberOfOrders": 1,
      "price": 6104.23,
      "quantity": 5.63
    }, {
      "numberOfOrders": 1,
      "price": 6106.8,
      "quantity": 0.256
    }, {
      "numberOfOrders": 1,
      "price": 6108,
      "quantity": 0.01
    }, {
      "numberOfOrders": 1,
      "price": 6108.21,
      "quantity": 0.04
    }, {
      "numberOfOrders": 1,
      "price": 6137.43,
      "quantity": 0.49357502
    }, {
      "numberOfOrders": 1,
      "price": 6137.7,
      "quantity": 0.15
    }, {
      "numberOfOrders": 8,
      "price": 6138.6,
      "quantity": 27.31622379
    }, {
      "numberOfOrders": 4,
      "price": 6138.7,
      "quantity": 8.47728995
    }, {
      "numberOfOrders": 1,
      "price": 6138.71,
      "quantity": 1.57070203
    }, {
      "numberOfOrders": 15,
      "price": 6138.8,
      "quantity": 22.06017316
    }, {
      "numberOfOrders": 1,
      "price": 6138.81,
      "quantity": 0.05
    }, {
      "numberOfOrders": 4,
      "price": 6138.9,
      "quantity": 7.44015907
    }, {
      "numberOfOrders": 10,
      "price": 6139,
      "quantity": 7.19428382
    }, {
      "numberOfOrders": 7,
      "price": 6139.1,
      "quantity": 10.42126356
    }, {
      "numberOfOrders": 7,
      "price": 6139.2,
      "quantity": 32.38288525
    }, {
      "numberOfOrders": 1,
      "price": 6139.22,
      "quantity": 6.04335559
    }, {
      "numberOfOrders": 3,
      "price": 6139.3,
      "quantity": 4.60083341
    }, {
      "numberOfOrders": 1,
      "price": 6139.32,
      "quantity": 0.06
    }, {
      "numberOfOrders": 7,
      "price": 6139.35,
      "quantity": 0.07
    }, {
      "numberOfOrders": 1,
      "price": 6139.38,
      "quantity": 0.28
    }, {
      "numberOfOrders": 9,
      "price": 6139.4,
      "quantity": 37.14850846
    }, {
      "numberOfOrders": 4,
      "price": 6139.5,
      "quantity": 23.76379459
    }, {
      "numberOfOrders": 4,
      "price": 6139.6,
      "quantity": 31.6524184
    }
  ],
  "bids": [
    {
      "numberOfOrders": 3,
      "price": 6074.6,
      "quantity": 4.86156108
    }, {
      "numberOfOrders": 9,
      "price": 6074.5,
      "quantity": 15.7519723
    }, {
      "numberOfOrders": 17,
      "price": 6074.46,
      "quantity": 1.19
    }, {
      "numberOfOrders": 10,
      "price": 6074.4,
      "quantity": 24.71556326
    }, {
      "numberOfOrders": 13,
      "price": 6074.3,
      "quantity": 14.28293521
    }, {
      "numberOfOrders": 11,
      "price": 6074.2,
      "quantity": 26.22772746
    }, {
      "numberOfOrders": 1,
      "price": 6074.15,
      "quantity": 4.9
    }, {
      "numberOfOrders": 2,
      "price": 6074.11,
      "quantity": 17.07
    }, {
      "numberOfOrders": 12,
      "price": 6074.1,
      "quantity": 18.17205416
    }, {
      "numberOfOrders": 1,
      "price": 6074.01,
      "quantity": 0.5
    }, {
      "numberOfOrders": 10,
      "price": 6074,
      "quantity": 46.77093599
    }, {
      "numberOfOrders": 1,
      "price": 6073.95,
      "quantity": 5.52
    }, {
      "numberOfOrders": 1,
      "price": 6073.92,
      "quantity": 17
    }, {
      "numberOfOrders": 13,
      "price": 6073.9,
      "quantity": 17.4395331
    }, {
      "numberOfOrders": 1,
      "price": 6073.87,
      "quantity": 0.04
    }, {
      "numberOfOrders": 6,
      "price": 6073.8,
      "quantity": 18.182
    }, {
      "numberOfOrders": 1,
      "price": 6073.72,
      "quantity": 17
    }, {
      "numberOfOrders": 9,
      "price": 6073.7,
      "quantity": 21.6092696
    }, {
      "numberOfOrders": 2,
      "price": 6073.65,
      "quantity": 0.0003293
    }, {
      "numberOfOrders": 8,
      "price": 6073.6,
      "quantity": 12.16814977
    }, {
      "numberOfOrders": 10,
      "price": 6073.5,
      "quantity": 16.70838577
    }, {
      "numberOfOrders": 11,
      "price": 6073.4,
      "quantity": 34.13422014
    }, {
      "numberOfOrders": 1,
      "price": 6073.36,
      "quantity": 0.04
    }, {
      "numberOfOrders": 1,
      "price": 6073.34,
      "quantity": 0.04
    }, {
      "numberOfOrders": 1,
      "price": 6073.33,
      "quantity": 0.49
    }, {
      "numberOfOrders": 7,
      "price": 6073.3,
      "quantity": 6.70494502
    }, {
      "numberOfOrders": 9,
      "price": 6073.2,
      "quantity": 12.13078317
    }, {
      "numberOfOrders": 1,
      "price": 6073.12,
      "quantity": 0.00048823
    }, {
      "numberOfOrders": 7,
      "price": 6073.1,
      "quantity": 16.27372124
    }, {
      "numberOfOrders": 1,
      "price": 6073.09,
      "quantity": 1.6
    }, {
      "numberOfOrders": 1,
      "price": 6073.03,
      "quantity": 4.9
    }, {
      "numberOfOrders": 1,
      "price": 6073.02,
      "quantity": 0.06
    }, {
      "numberOfOrders": 35,
      "price": 6073,
      "quantity": 323.19312306
    }, {
      "numberOfOrders": 1,
      "price": 6072.92,
      "quantity": 0.09
    }, {
      "numberOfOrders": 12,
      "price": 6072.9,
      "quantity": 13.20693876
    }, {
      "numberOfOrders": 2,
      "price": 6072.82,
      "quantity": 0.09
    }, {
      "numberOfOrders": 12,
      "price": 6072.8,
      "quantity": 15.66743931
    }, {
      "numberOfOrders": 1,
      "price": 6072.78,
      "quantity": 51.6
    }, {
      "numberOfOrders": 1,
      "price": 6072.77,
      "quantity": 5.83975991
    }, {
      "numberOfOrders": 10,
      "price": 6072.7,
      "quantity": 27.15217535
    }, {
      "numberOfOrders": 1,
      "price": 6072.66,
      "quantity": 0.01
    }
  ]
}
